SetFactory("OpenCASCADE");
//+
Point(1) = {3, 0, 0, 1.0};
//+
Point(2) = {3, 1, 0, 1.0};
//+
Point(3) = {0, 0, 0, 1.0};
//+
Point(4) = {0, 1, 0, 1.0};
//+++++
Point(5) = {1.125, 0.5, 0, 1.0};
//+
Point(6) = {1.5, 0.5, 0, 1.0};
//+
Point(7) = {1.875, 0.5, 0, 1.0};
//+
Point(8) = {2.1, 0.6, 0, 1.0};
//+
Point(9) = {2.4, 0.6, 0, 1.0};
//+
Point(10) = {2.7, 0.6, 0, 1.0};
//+
Point(11) = {0.2, 0.3, 0, 1.0};
//+
Point(12) = {0.4, 0.3, 0, 1.0};
//+
Point(13) = {0.6, 0.3, 0, 1.0};
//+
Line(1) = {4, 2};
//+
Line(2) = {2, 1};
//+
Line(3) = {1, 3};
//+
Line(4) = {3, 4};
//+
//Circle(5) = {1.5, 0.5, 0, 0.375, 0, 2*Pi};
//+
//Circle(6) = {2.4, 0.6, 0, 0.3, 0, 2*Pi};
//+
//Circle(7) = {0.4, 0.3, 0, 0.2, 0, 2*Pi};
Circle(5) = {5, 6, 7};
Circle(6) = {7, 6, 5};
Circle(7) = {8, 9, 10};
Circle(8) = {10, 9, 8};
Circle(9) = {11, 12, 13};
Circle(10) = {13, 12, 11};
//+
Line Loop(1) = {1, 2, 3, 4};
//+
//Line Loop(2) = {7};
Line Loop(2) = {5, 6};
//Line Loop(2) = {5};
//+
//Line Loop(3) = {5};
Line Loop(3) = {7, 8};
//Line Loop(3) = {7};
//+
//Line Loop(4) = {6};
Line Loop(4) = {9, 10};
//Line Loop(4) = {9};
//+
Delete{ Point{6}; Point{9}; Point{12}; }
Plane Surface(1) = {1, 2, 3, 4};
