$MeshFormat
4.1 0 8
$EndMeshFormat
$Entities
10 10 1 0
1 3 0 0 0 
2 3 1 0 0 
3 0 0 0 0 
4 0 1 0 0 
5 1.125 0.5 0 0 
7 1.875 0.5 0 0 
8 2.1 0.6 0 0 
10 2.7 0.6 0 0 
11 0.2 0.3 0 0 
13 0.6 0.3 0 0 
1 -1.000000000583867e-07 0.9999999000000001 -1e-07 3.0000001 1.0000001 1e-07 0 2 4 -2 
2 2.9999999 -9.999999994736442e-08 -1e-07 3.0000001 1.0000001 1e-07 0 2 2 -1 
3 -1.000000000583867e-07 -1e-07 -1e-07 3.0000001 1e-07 1e-07 0 2 1 -3 
4 -1e-07 -9.999999994736442e-08 -1e-07 1e-07 1.0000001 1e-07 0 2 3 -4 
5 1.1249999 0.4999998999999999 -1e-07 1.8750001 0.8750000999999999 1e-07 0 2 5 -7 
6 1.1249999 0.1249999 -1e-07 1.8750001 0.5000000999999999 1e-07 0 2 7 -5 
7 2.0999999 0.5999999 -1e-07 2.7000001 0.9000000999999997 1e-07 0 2 8 -10 
8 2.0999999 0.2999998999999997 -1e-07 2.7000001 0.6000000999999999 1e-07 0 2 10 -8 
9 0.1999999 0.2999999 -1e-07 0.6000001 0.5000000999999999 1e-07 0 2 11 -13 
10 0.1999999000000001 0.09999990000000003 -1e-07 0.6000000999999999 0.3000001 1e-07 0 2 13 -11 
1 -1.000000000583867e-07 -9.999999994736442e-08 -1e-07 3.0000001 1.0000001 1e-07 0 10 1 2 3 4 5 6 7 8 9 10 
$EndEntities
$Nodes
21 192 1 192
0 1 0 1
1
3 0 0
0 2 0 1
2
3 1 0
0 3 0 1
3
0 0 0
0 4 0 1
4
0 1 0
0 5 0 1
5
1.125 0.5 0
0 7 0 1
6
1.875 0.5 0
0 8 0 1
7
2.1 0.6 0
0 10 0 1
8
2.7 0.6 0
0 11 0 1
9
0.2 0.3 0
0 13 0 1
10
0.6 0.3 0
1 1 0 19
11
12
13
14
15
16
17
18
19
20
21
22
23
24
25
26
27
28
29
0.15 1 0
0.3 1 0
0.45 1 0
0.6 1 0
0.75 1 0
0.9 1 0
1.05 1 0
1.2 1 0
1.35 1 0
1.5 1 0
1.65 1 0
1.8 1 0
1.95 1 0
2.1 1 0
2.25 1 0
2.4 1 0
2.55 1 0
2.7 1 0
2.85 1 0
1 2 0 6
30
31
32
33
34
35
3 0.8571428571428574 0
3 0.7142857142857146 0
3 0.5714285714285723 0
3 0.42857142857143 0
3 0.2857142857142868 0
3 0.1428571428571435 0
1 3 0 19
36
37
38
39
40
41
42
43
44
45
46
47
48
49
50
51
52
53
54
2.85 0 0
2.7 0 0
2.55 0 0
2.4 0 0
2.25 0 0
2.1 0 0
1.95 0 0
1.8 0 0
1.65 0 0
1.5 0 0
1.35 0 0
1.2 0 0
1.05 0 0
0.8999999999999999 0 0
0.75 0 0
0.6000000000000001 0 0
0.4500000000000002 0 0
0.2999999999999998 0 0
0.1499999999999999 0 0
1 4 0 6
55
56
57
58
59
60
0 0.1428571428571426 0
0 0.2857142857142854 0
0 0.4285714285714277 0
0 0.57142857142857 0
0 0.7142857142857132 0
0 0.8571428571428565 0
1 5 0 7
61
62
63
64
65
66
67
1.153545175308267 0.6435062871369084 0
1.234834957055044 0.7651650429449548 0
1.356493712863091 0.8464548246917322 0
1.499999999999999 0.875 0
1.643506287136907 0.8464548246917331 0
1.765165042944955 0.7651650429449559 0
1.846454824691732 0.6435062871369093 0
1 6 0 7
68
69
70
71
72
73
74
1.846454824691733 0.3564937128630916 0
1.765165042944956 0.2348349570550451 0
1.643506287136909 0.1535451753082678 0
1.500000000000001 0.125 0
1.356493712863092 0.1535451753082671 0
1.234834957055045 0.2348349570550441 0
1.153545175308268 0.356493712863091 0
1 7 0 6
75
76
77
78
79
80
2.129709339629274 0.7301651217352673 0
2.21295305944238 0.8345494447404087 0
2.333243719813106 0.892478373654547 0
2.466756280186894 0.892478373654547 0
2.58704694055762 0.8345494447404088 0
2.670290660370726 0.7301651217352674 0
1 8 0 6
81
82
83
84
85
86
2.670290660370726 0.4698348782647325 0
2.58704694055762 0.3654505552595909 0
2.466756280186894 0.3075216263454527 0
2.333243719813106 0.3075216263454527 0
2.21295305944238 0.3654505552595908 0
2.129709339629274 0.4698348782647324 0
1 9 0 4
87
88
89
90
0.2381966011250105 0.4175570504584946 0
0.3381966011250102 0.4902113032590306 0
0.4618033988749891 0.4902113032590308 0
0.5618033988749895 0.4175570504584947 0
1 10 0 4
91
92
93
94
0.5618033988749895 0.1824429495415055 0
0.4618033988749898 0.1097886967409694 0
0.3381966011250108 0.1097886967409692 0
0.2381966011250106 0.1824429495415053 0
2 1 0 98
95
96
97
98
99
100
101
102
103
104
105
106
107
108
109
110
111
112
113
114
115
116
117
118
119
120
121
122
123
124
125
126
127
128
129
130
131
132
133
134
135
136
137
138
139
140
141
142
143
144
145
146
147
148
149
150
151
152
153
154
155
156
157
158
159
160
161
162
163
164
165
166
167
168
169
170
171
172
173
174
175
176
177
178
179
180
181
182
183
184
185
186
187
188
189
190
191
192
1.00757907294957 0.5958792862050729 0
0.5655426341422153 0.5248268869112793 0
0.6876838812136884 0.3906543858354807 0
0.3972735326176742 0.6016451742220031 0
0.6749999999999999 0.8700961894323342 0
0.7221533595765413 0.2731772973398178 0
0.8100400048735826 0.3720156445672781 0
0.7804866472285605 0.5051618383082175 0
0.2187813609254798 0.8616286154491689 0
2.78094379115383 0.1459267445258587 0
0.2689769188645519 0.6091863774319231 0
0.975 0.1299038105676657 0
2.025189066172554 0.119762807465469 0
0.9779669588943872 0.8733124721633357 0
2.877614671714889 0.3660492274171818 0
1.91116950694092 0.7747346811017344 0
2.56758141292071 0.2324682988754419 0
2.244987758688216 0.222823465641336 0
2.057002346286888 0.3537891151994493 0
2.898442528278074 0.7727017226789799 0
1.019322244731943 0.4112668031505247 0
0.327622409733358 0.7454308866243147 0
0.4637920258788577 0.719009733726644 0
2.690527428902994 0.2569954013228886 0
2.401149809626203 0.1900557741391266 0
2.793385861932967 0.4988993238879382 0
0.4394198297071066 0.8525219529826679 0
0.2057884022098813 0.7118039887832919 0
0.8709524514939045 0.2314314946844848 0
2.831923664429037 0.6326645196578295 0
0.1138050141030904 0.4897744030448044 0
0.9050704748473963 0.4829259423737949 0
0.8651256225361452 0.6260410672482428 0
0.7300155165156039 0.6382011125926192 0
0.8057285483773288 0.7577206027141852 0
2.101011967869033 0.8560726730799711 0
2.704115195825628 0.8536911367717249 0
1.042278522725205 0.2622665106832511 0
1.122527863564026 0.13022570228927 0
1.062937369167809 0.7453669002708971 0
1.125137958100093 0.8689681256691975 0
1.875 0.1299038105676657 0
0.1108568050281442 0.2249746230661706 0
0.5609583658426802 0.8115476333891943 0
0.6079059762719988 0.7031613928896423 0
1.95 0.2544450778088798 0
0.7575700683821632 0.1462420945962825 0
2.892067276715266 0.2222291709904015 0
1.995921860191349 0.6722674177590588 0
1.998188550808073 0.4497394136534186 0
0.12314309103249 0.6282380260794697 0
2.636117850027029 0.1242246040851349 0
2.510969814514788 0.1093497354199406 0
0.8300870424358501 0.8843305823309672 0
2.171648107286728 0.1124379364889389 0
0.1103726142094974 0.3687795433308041 0
0.1070245949902273 0.7802106964582902 0
1.853313148455879 0.8895550782487559 0
2.736796675951128 0.3739842801011286 0
2.29355713512023 0.1050634352538803 0
2.101134397035322 0.2252343875906455 0
0.2255262165071044 0.07824199840216445 0
0.9250575593921192 0.7486440283577209 0
0.9255048283664589 0.3435002996524739 0
1.982665655999879 0.8805072017613752 0
1.242258790349743 0.8857369796389475 0
1.241936315309117 0.1137804023569318 0
1.746734266016373 0.1036567885861958 0
2.907056504830543 0.5167226445023927 0
2.024095666126091 0.7827494190874813 0
2.77887983587804 0.7371976195560177 0
2.818310791850486 0.8851956626104434 0
0.660574180187495 0.5147867191339206 0
2.895229202794879 0.1051234469411116 0
0.5223717618226078 0.6085289219510053 0
0.1083535472526567 0.1010827334528918 0
0.6578350239543791 0.1834156964049471 0
1.994454970241579 0.5558750121218419 0
0.8599620539380235 0.1047812041006564 0
0.6820976670199821 0.7584145298939429 0
0.2206286249113518 0.5151206873749412 0
0.6717356739871497 0.07961022750766866 0
0.5555436920853348 0.08591247437041016 0
1.738543619015301 0.9047200456593834 0
0.09480536649271043 0.9038953121117015 0
2.175 0.9299206916520772 0
2.625 0.9299206916520768 0
1.574408371641481 0.9348993098297866 0
1.425591628358519 0.06510069017021347 0
1.574408371641482 0.06510069017021347 0
1.425591628358518 0.9348993098297866 0
2.800268166910006 0.2831258650544635 0
0.3372995698656258 0.8947959078272364 0
1.948805389893912 0.3645024437187463 0
0.6325425873434953 0.6085659081480416 0
2.916679045732652 0.9103118713678768 0
2.929115804915567 0.6428571428571435 0
0.5450756391099574 0.9068331551608393 0
$EndNodes
$Elements
21 398 1 398
0 1 15 1
1 1 
0 2 15 1
2 2 
0 3 15 1
3 3 
0 4 15 1
4 4 
0 5 15 1
5 5 
0 7 15 1
6 6 
0 8 15 1
7 7 
0 10 15 1
8 8 
0 11 15 1
9 9 
0 13 15 1
10 10 
1 1 1 20
11 4 11 
12 11 12 
13 12 13 
14 13 14 
15 14 15 
16 15 16 
17 16 17 
18 17 18 
19 18 19 
20 19 20 
21 20 21 
22 21 22 
23 22 23 
24 23 24 
25 24 25 
26 25 26 
27 26 27 
28 27 28 
29 28 29 
30 29 2 
1 2 1 7
31 2 30 
32 30 31 
33 31 32 
34 32 33 
35 33 34 
36 34 35 
37 35 1 
1 3 1 20
38 1 36 
39 36 37 
40 37 38 
41 38 39 
42 39 40 
43 40 41 
44 41 42 
45 42 43 
46 43 44 
47 44 45 
48 45 46 
49 46 47 
50 47 48 
51 48 49 
52 49 50 
53 50 51 
54 51 52 
55 52 53 
56 53 54 
57 54 3 
1 4 1 7
58 3 55 
59 55 56 
60 56 57 
61 57 58 
62 58 59 
63 59 60 
64 60 4 
1 5 1 8
65 5 61 
66 61 62 
67 62 63 
68 63 64 
69 64 65 
70 65 66 
71 66 67 
72 67 6 
1 6 1 8
73 6 68 
74 68 69 
75 69 70 
76 70 71 
77 71 72 
78 72 73 
79 73 74 
80 74 5 
1 7 1 7
81 7 75 
82 75 76 
83 76 77 
84 77 78 
85 78 79 
86 79 80 
87 80 8 
1 8 1 7
88 8 81 
89 81 82 
90 82 83 
91 83 84 
92 84 85 
93 85 86 
94 86 7 
1 9 1 5
95 9 87 
96 87 88 
97 88 89 
98 89 90 
99 90 10 
1 10 1 5
100 10 91 
101 91 92 
102 92 93 
103 93 94 
104 94 9 
2 1 2 294
105 116 122 103 
106 103 187 116 
107 92 52 93 
108 123 132 106 
109 102 128 127 
110 115 126 95 
111 123 158 132 
112 116 187 121 
113 5 115 95 
114 102 127 126 
115 119 147 39 
116 104 146 118 
117 73 133 132 
118 134 135 62 
119 73 132 74 
120 137 150 9 
121 39 154 119 
122 61 134 62 
123 111 119 83 
124 84 119 112 
125 56 150 137 
126 81 153 82 
127 82 153 118 
128 59 151 145 
129 69 140 136 
130 85 155 113 
131 112 155 85 
132 68 140 69 
133 111 147 119 
134 119 154 112 
135 118 146 111 
136 67 172 6 
137 143 172 67 
138 126 158 101 
139 145 151 122 
140 118 186 104 
141 102 126 101 
142 7 143 75 
143 129 174 99 
144 105 175 145 
145 127 157 95 
146 120 163 109 
147 109 153 120 
148 99 148 129 
149 130 159 24 
150 156 170 94 
151 121 187 13 
152 95 157 134 
153 26 77 25 
154 27 78 26 
155 102 167 128 
156 13 192 121 
157 108 157 148 
158 105 145 122 
159 24 159 23 
160 76 180 77 
161 78 181 79 
162 27 181 78 
163 77 180 25 
164 143 164 75 
165 94 170 137 
166 115 158 126 
167 148 157 129 
168 167 189 128 
169 48 133 47 
170 128 129 127 
171 138 174 139 
172 113 155 140 
173 124 163 120 
174 23 152 22 
175 80 165 8 
176 18 135 17 
177 28 166 131 
178 8 165 124 
179 124 191 163 
180 87 150 125 
181 17 135 108 
182 106 133 48 
183 99 174 138 
184 78 77 26 
185 58 125 57 
186 23 159 152 
187 52 177 51 
188 108 135 134 
189 15 99 14 
190 39 147 38 
191 92 177 52 
192 5 95 61 
193 29 166 28 
194 49 106 48 
195 12 103 11 
196 66 110 67 
197 37 104 36 
198 126 127 95 
199 42 136 107 
200 74 115 5 
201 34 109 33 
202 31 114 30 
203 132 133 106 
204 106 173 123 
205 17 108 16 
206 114 191 124 
207 74 132 115 
208 43 136 42 
209 95 134 61 
210 42 107 41 
211 171 177 91 
212 56 137 55 
213 122 151 103 
214 138 139 117 
215 54 156 53 
216 86 172 7 
217 145 175 125 
218 136 140 107 
219 9 150 87 
220 8 120 81 
221 131 166 165 
222 15 148 99 
223 90 97 10 
224 8 124 120 
225 82 111 83 
226 63 160 19 
227 89 96 90 
228 46 161 72 
229 70 162 44 
230 35 142 34 
231 85 113 86 
232 84 112 85 
233 88 98 89 
234 57 150 56 
235 83 119 84 
236 82 118 111 
237 97 102 101 
238 107 149 41 
239 108 148 16 
240 165 166 114 
241 34 142 109 
242 116 117 98 
243 79 131 80 
244 38 146 37 
245 60 151 59 
246 121 138 117 
247 75 130 76 
248 144 172 86 
249 138 192 99 
250 94 137 9 
251 6 188 68 
252 99 192 14 
253 88 105 98 
254 59 145 58 
255 44 162 43 
256 123 141 100 
257 140 155 107 
258 105 122 116 
259 19 160 18 
260 110 143 67 
261 40 154 39 
262 116 121 117 
263 144 188 6 
264 104 186 142 
265 109 163 33 
266 47 161 46 
267 97 100 10 
268 105 116 98 
269 140 188 113 
270 101 123 100 
271 31 191 114 
272 113 144 86 
273 13 187 12 
274 139 169 117 
275 97 101 100 
276 141 173 50 
277 50 173 49 
278 36 168 1 
279 1 168 35 
280 121 192 138 
281 124 165 114 
282 20 185 19 
283 21 182 20 
284 45 184 44 
285 46 183 45 
286 38 147 146 
287 65 178 66 
288 139 189 169 
289 107 155 149 
290 10 171 91 
291 125 175 87 
292 132 158 115 
293 114 190 30 
294 58 145 125 
295 176 177 171 
296 125 150 57 
297 37 146 104 
298 3 170 54 
299 16 148 15 
300 41 149 40 
301 133 161 47 
302 90 167 97 
303 55 170 3 
304 96 167 90 
305 112 154 149 
306 66 152 110 
307 89 169 96 
308 100 171 10 
309 98 169 89 
310 71 183 72 
311 64 182 65 
312 70 184 71 
313 63 185 64 
314 134 157 108 
315 146 147 111 
316 66 178 152 
317 120 153 81 
318 18 160 135 
319 19 185 63 
320 44 184 70 
321 65 182 21 
322 72 183 46 
323 149 155 112 
324 139 174 128 
325 87 175 88 
326 128 174 129 
327 131 165 80 
328 25 180 24 
329 28 181 27 
330 103 179 11 
331 166 190 114 
332 11 179 4 
333 73 161 133 
334 136 162 69 
335 54 170 156 
336 88 175 105 
337 123 173 141 
338 169 189 96 
339 93 156 94 
340 6 172 144 
341 129 157 127 
342 135 160 62 
343 4 179 60 
344 21 178 65 
345 43 162 136 
346 72 161 73 
347 62 160 63 
348 104 168 36 
349 91 177 92 
350 53 156 93 
351 33 163 32 
352 131 181 28 
353 69 162 70 
354 24 180 130 
355 49 173 106 
356 2 190 29 
357 163 191 32 
358 101 158 123 
359 128 189 139 
360 12 187 103 
361 97 167 102 
362 152 159 110 
363 113 188 144 
364 35 168 142 
365 117 169 98 
366 51 176 50 
367 22 178 21 
368 149 154 40 
369 14 192 13 
370 79 181 131 
371 141 171 100 
372 130 180 76 
373 32 191 31 
374 151 179 103 
375 159 164 110 
376 68 188 140 
377 137 170 55 
378 75 164 130 
379 7 172 143 
380 130 164 159 
381 142 168 104 
382 110 164 143 
383 30 190 2 
384 50 176 141 
385 71 184 45 
386 45 183 71 
387 20 182 64 
388 64 185 20 
389 142 186 109 
390 96 189 167 
391 153 186 118 
392 109 186 153 
393 60 179 151 
394 152 178 22 
395 141 176 171 
396 51 177 176 
397 29 190 166 
398 52 53 93 
$EndElements
